<?xml version="1.0" encoding="UTF-8" standalone="no"?>
<!DOCTYPE svg PUBLIC "-//W3C//DTD SVG 1.1//EN" 
  "http://www.w3.org/Graphics/SVG/1.1/DTD/svg11.dtd">
<svg width="100px" height="100px" version="1.1"
     xmlns="http://www.w3.org/2000/svg">
  <desc>Titato player 0</desc>
  <line x1="8" y1="8" x2="92" y2="92"
        stroke="red" stroke-width="10"  />
  <line x1="92" y1="8" x2="8" y2="92"
        stroke="red" stroke-width="10"  />
</svg>
